id,carLicenseNumber,manufacturer,model,basePrice,pph,securityDeposit
1,KA01EM7070,honda,city,500,150,1000
2,KA01EM7050,honda,city,500,150,1000
3,KA01EM7051,honda,city,500,150,1000
4,KA01EM7052,honda,city,500,150,1000
5,KA01EM7053,Maruti,Swift,550,170,1000
6,KA01EM7054,Maruti,Swift,550,170,1000
7,KA01EM7055,Maruti,Swift,550,170,1000
8,KA01EM7056,Maruti,Celerio,530,150,1000
9,KA01EM7057,Maruti,Celerio,530,150,1000
10,KA01EM7058,BMW,X5,1200,600,5000
11,KA01EM7059,Audi,A7,1000,500,4500
12,KA01EM7060,Porsche,Macan,1800,1200,10000
13,KA01EM7061,TATA,Nexon,400,180,1100
14,KA01EM7062,KIA,Seltos,700,200,2000
15,KA01EM7063,TATA,Indica,300,120,1000
