userId,firstName,lastName,mobileNo,access
1,Amit,Trivedi,9876543210,Admin
2,Ajay,Sharma,9876543211,User
3,Jaisal,Singh,9876543212,Admin
4,Sameer,Sonone,9876543213,User
5,Gurpreet,Kaur,9876543214,Admin
